…
The data on votes at the county level are from Michael W. Kearney, at this [github repo](https://github.com/mkearney/presidential_election_county_results_2016). There are no county level results for Alaska and Hawaii, so I will only focus on the lower 48 states. Corresponding shapefiles are from the [USAboundaries](https://cran.r-project.org/package=USAboundaries) package.

The basis for generating the dots in the map is the `st_sample()` function in [sf](https://cran.r-project.org/package=sf). This samples random points on/in other simple features, i.e. polygons corresponding to counties in this case. The [doc page has some examples](https://r-spatial.github.io/sf/reference/st_sample.html) showing what it does. In principle, getting the data needed to produce a dot density map is as simple as calling this function on each county geometry with a size argument derived from a candidate's number of votes in that county. In practice there were a couple of hiccups.

First, the version of `st_sample()` I am using[3] returns raw points without aggregating them to the geometry they were sampled from. The input data look like this:

    ## Simple feature collection with 9322 features and 4 fields
    ## geometry type:  MULTIPOLYGON
    ## dimension:      XY
    ## bbox:           xmin: -2356114 ymin: -1338125 xmax: 2258154 ymax: 1558935
    ## epsg (SRID):    102003
    ## proj4string:    +proj=aea +lat_1=29.5 +lat_2=45.5 +lat_0=37.5 +lon_0=-96 +x_0=0 +y_0=0 +datum=NAD83 +units=m +no_defs
    ## # A tibble: 9,322 x 5
    ##      fips name       cand            votes                       geometry
    ##     <dbl> <chr>      <fct>           <int>              <sf_geometry [m]>
    ##  1 39131. Pike       Donald Trump     7902 MULTIPOLYGON (((1078953 262...
    ##  2 39131. Pike       Hillary Clinton  3539 MULTIPOLYGON (((1078953 262...
    ##  3 39131. Pike       Other             424 MULTIPOLYGON (((1078953 262...
    ##  4 46003. Aurora     Donald Trump      974 MULTIPOLYGON (((-224564.9 7...
    ##  5 46003. Aurora     Hillary Clinton   340 MULTIPOLYGON (((-224564.9 7...
    ##  6 46003. Aurora     Other              93 MULTIPOLYGON (((-224564.9 7...
    ##  7 55035. Eau Claire Donald Trump    23331 MULTIPOLYGON (((343111 8307...
    ##  8 55035. Eau Claire Hillary Clinton 27340 MULTIPOLYGON (((343111 8307...
    ##  9 55035. Eau Claire Other            3512 MULTIPOLYGON (((343111 8307...
    ## 10 48259. Kendall    Donald Trump    15700 MULTIPOLYGON (((-280936 -81...
    ## # ... with 9,312 more rows
…
